-992
-992
-56 -48 -56 -8 -56 -24 -24 -24 -24 600
-8 16 -16 -16 -48 -48 -56 -32 -48 -56 568
-16 -8 -32 48 -40 -48 -32 -16 688
-16 -56 -40 -24 -8 808
-48 -56 -8 -48 -56 -32 -56 632
-40 -40 -8 8 -48 -56 -48 -24 656
-40 -32 -8 -24 -48 -56 8 -56 -40 608
-40 944
-40 -16 -16 -40 -8 -48 -48 -32 -56 616
-8 -24 8 -32 -48 8 -32 -32 736
-16 -40 -16 -40 -56 -40 -16 -56 -8 632
-48 -40 -56 -24 792
-56 -24 896
-16 -32 -40 -32 -8 -48 -32 -16 -32 -48 608
